\relax 
\catcode`"\active
\select@language{italian}
\@writefile{toc}{\select@language{italian}}
\@writefile{lof}{\select@language{italian}}
\@writefile{lot}{\select@language{italian}}
\@writefile{toc}{\contentsline {section}{\numberline {1}Watershed algorithm}{1}}
\providecommand*\caption@xref[2]{\@setref\relax\@undefined{#1}}
\newlabel{fig:256_MRI_z_109}{{1a}{1}}
\newlabel{sub@fig:256_MRI_z_109}{{(a)}{a}}
\newlabel{fig:256_white}{{1b}{1}}
\newlabel{sub@fig:256_white}{{(b)}{b}}
\@writefile{lof}{\contentsline {figure}{\numberline {1}{\ignorespaces \relax }}{1}}
\@writefile{lof}{\contentsline {subfigure}{\numberline{(a)}{\ignorespaces {MRI image}}}{1}}
\@writefile{lof}{\contentsline {subfigure}{\numberline{(b)}{\ignorespaces {Negative image}}}{1}}
\@writefile{lof}{\contentsline {figure}{\numberline {2}{\ignorespaces Visualizzazione 3D del negativo dell'immagine\relax }}{1}}
